<?xml version="1.0" encoding="utf-8"?>
<!-- Generator: Adobe Illustrator 18.0.0, SVG Export Plug-In . SVG Version: 6.00 Build 0)  -->
<!DOCTYPE svg PUBLIC "-//W3C//DTD SVG 1.1//EN" "http://www.w3.org/Graphics/SVG/1.1/DTD/svg11.dtd">
<svg version="1.1" id="Layer_1" xmlns="http://www.w3.org/2000/svg" xmlns:xlink="http://www.w3.org/1999/xlink" x="0px" y="0px"
	 viewBox="0 0 1280 800" enable-background="new 0 0 1280 800" xml:space="preserve">
<g>
	<g>
		<path fill="#FFFFFF" d="M747.4,321.3C747.4,321.3,747.3,321.2,747.4,321.3c-0.6-0.5-1.7-0.8-3.1-0.8c-1.3,0-2.8,0.2-4.3,0.7
			c-2,0.6-3.9,2.8-5.5,4.9c-1.3,1.6-2.7,3.2-3.5,3.3c0,0-3.1,0-5.4,0c-1.3,0-2.2,0-2.5,0c-0.2-0.1-0.9-1-1.4-1.8
			c-2.1-2.9-6.2-8.4-13.3-11.7v-4.4c0-2.5,0.3-3.8,0.9-4.5c0.5-0.5,1.3-0.5,2.4-0.5h4.9c0.6,0,1.2-0.5,1.2-1.2
			c0-0.6-0.5-1.2-1.2-1.2h-4.6c-5.6,0-5.9,2.1-5.9,7.3v3.4c-0.9-0.3-1.9-0.6-2.9-0.9v-8.2c0-2.5,0.3-3.8,0.9-4.5
			c0.5-0.5,1.3-0.5,2.4-0.5h7.8c0.6,0,1.2-0.5,1.2-1.2c0-0.6-0.5-1.2-1.2-1.2h-7.5c-5.6,0-5.9,2.1-5.9,7.3v7.7
			c-0.9-0.2-1.9-0.3-2.9-0.4v-13c0-2.5,0.3-3.9,0.9-4.5c0.5-0.5,1.3-0.5,2.4-0.5h11.6c0.6,0,1.2-0.5,1.2-1.2c0-0.6-0.5-1.2-1.2-1.2
			h-11.3c-5.6,0-5.9,2.1-5.9,7.3V313c-0.2,0-0.3,0-0.5,0c-4.5,0-8.8,1.1-12.7,2.8v-12.8c0-0.6-0.5-1.2-1.2-1.2
			c-0.6,0-1.2,0.5-1.2,1.2v13.9c-1,0.5-1.9,1-2.9,1.6v-6.2c0-5.2-0.2-7.3-5.9-7.3h-7.5c-0.6,0-1.2,0.5-1.2,1.2
			c0,0.6,0.5,1.2,1.2,1.2h7.7c1.1,0,1.9,0,2.4,0.5c0.6,0.6,0.9,2,0.9,4.5v7.7c-1,0.7-2,1.4-2.9,2.1V318c0-5.2-0.2-7.3-5.9-7.3h-4.6
			c-0.6,0-1.2,0.5-1.2,1.2c0,0.6,0.5,1.2,1.2,1.2l4.9,0c1.1,0,1.9,0,2.4,0.5c0.6,0.6,0.9,2,0.9,4.5v6.1c-2.4,2.2-4.5,4.3-6,6h-13.6
			c-0.6,0-1.2,0.5-1.2,1.2c0,0.6,0.5,1.2,1.2,1.2h11.7c-0.7,0.9-1.1,1.5-1.2,1.5l-0.1,0.2l0.1,0.2c0,0,0.3,0.5,0.9,1.2h-11.4
			c-0.6,0-1.2,0.5-1.2,1.2c0,0.6,0.5,1.2,1.2,1.2h13.4c5.2,5.9,17,17.2,31.7,17.2c15.9,0,23.4-10.3,26.6-14.6
			c0.6-0.8,1.2-1.7,1.4-1.7c0.4,0,1.4,0,2.6,0c2.3,0,5.3,0,5.3,0c0.9,0.1,2.3,1.7,3.6,3.3c1.7,2,3.6,4.3,5.5,4.9
			c1.4,0.4,2.8,0.6,4.1,0.6c1.3,0,2.5-0.2,3.2-0.7l0.1,0c0.7-0.4,2.8-1.7,2.8-12.7C750.2,323.4,748.1,321.8,747.4,321.3z
			 M746.9,346.2L746.9,346.2c-0.3,0.2-1.1,0.6-2.8,0.6c-1.2,0-2.5-0.2-3.9-0.6c-1.7-0.5-3.6-2.7-5.2-4.6c-1.5-1.8-2.9-3.4-4.1-3.6
			c0,0-6.7,0-7.9,0c-0.5,0-0.9,0.6-2,2c-3.2,4.3-10.6,14.3-26,14.3c-14.6,0-26.4-11.4-31.3-17.2h-1c0,0,0,0,0,0h-12.7
			c-0.2,0-0.4-0.2-0.4-0.4c0-0.2,0.2-0.4,0.4-0.4h12c0,0,0,0,0,0h1c-0.9-1-1.4-1.8-1.7-2.2c0.3-0.4,1-1.3,2-2.5h-1c0,0,0,0,0,0
			h-12.3c-0.2,0-0.4-0.2-0.4-0.4c0-0.2,0.2-0.4,0.4-0.4h13v0h1c1.6-1.8,3.7-4.1,6.4-6.4v-1l0,0V318c0-2.7-0.3-4.2-1.1-5
			c-0.7-0.7-1.7-0.7-2.9-0.7h-4.9c-0.2,0-0.4-0.2-0.4-0.4c0-0.2,0.2-0.4,0.4-0.4h4.6c4.9,0,5.1,1.4,5.1,6.5v4.7c0,0,0,0,0,0v1
			c1.3-1.1,2.8-2.2,4.4-3.3v-0.1l0,0v-7.9c0-2.7-0.3-4.2-1.1-5c-0.7-0.7-1.7-0.7-2.9-0.7h-7.7c-0.2,0-0.4-0.2-0.4-0.4
			c0-0.2,0.2-0.4,0.4-0.4h7.5c4.9,0,5.1,1.4,5.1,6.5v6.9h0v0.6c1.4-0.9,2.8-1.7,4.4-2.5v-0.2h0v-14.2c0-0.2,0.2-0.4,0.4-0.4
			c0.2,0,0.4,0.2,0.4,0.4v13.5h0v0.5c4.1-1.9,8.6-3.2,13.4-3.2c0.4,0,0.9,0,1.3,0V313c0,0,0,0,0,0l0-12.9c0-5.2,0.2-6.5,5.1-6.5
			h11.3c0.2,0,0.4,0.2,0.4,0.4c0,0.2-0.2,0.4-0.4,0.4h-11.3l-0.3,0c-1.2,0-2.2,0-2.9,0.7c-0.8,0.8-1.1,2.3-1.1,5v13.2l0,0v0.6
			c1.5,0.1,3,0.3,4.4,0.6v-0.8c0,0,0,0,0,0v-7.8c0-5.2,0.2-6.5,5.1-6.5h7.5c0.2,0,0.4,0.2,0.4,0.4c0,0.2-0.2,0.4-0.4,0.4h-7.7
			c-1.2,0-2.2,0-2.9,0.7c-0.8,0.8-1.1,2.3-1.1,5v8.3h0v0.4c1.6,0.4,3,0.8,4.3,1.4v-0.5h0v-4c0-5.2,0.2-6.5,5.1-6.5h4.6
			c0.2,0,0.4,0.2,0.4,0.4c0,0.2-0.2,0.4-0.4,0.4h-4.9c-1.2,0-2.2,0-2.9,0.7c-0.8,0.8-1.1,2.3-1.1,5v4.7l0,0v0.1
			c7.2,3.3,11.3,8.8,13.4,11.7c1.1,1.4,1.5,2.1,2.1,2.1c0,0,0,0,0,0c0.3,0,1.2,0,2.5,0c2.3,0,5.4,0,5.4,0c1.2-0.1,2.5-1.7,4.1-3.6
			c1.6-1.9,3.4-4.1,5.2-4.6c1.5-0.4,2.9-0.6,4.1-0.6c1.2,0,2.1,0.2,2.5,0.6c0,0,0.1,0.1,0.1,0.1c1.7,1.3,2.5,5.4,2.5,12.3
			C749.4,339,749,345,746.9,346.2z"/>
		<path fill="#FFFFFF" d="M744.4,338.4c0.4,1.1,0.3,3.6-0.6,4.6c-0.3,0.4-0.8,0.5-1.3,0.4c-0.9-0.2-1.8-1.7-2.5-2.9
			c-0.3-0.6-0.7-1.1-1-1.5c-3-3.7-6.5-3.6-10.6-3.5c-0.7,0-1.3,0-2,0h-19.8v-3.2h19.8c0.7,0,1.4,0,2,0c0.7,0,1.4,0,2.1,0
			c3.2,0,6-0.5,8.5-3.5c0.3-0.4,0.6-0.9,1-1.5c0.7-1.2,1.6-2.7,2.5-2.9c0.5-0.1,0.9,0,1.3,0.4c0.9,1,1,3.5,0.6,4.6l0.7,0.3
			c0.5-1.3,0.4-4.1-0.8-5.4c-0.5-0.6-1.2-0.8-2-0.6c-1.2,0.3-2.1,1.9-3,3.2c-0.3,0.5-0.6,1-0.9,1.4c-2.8,3.4-5.9,3.3-10,3.2
			c-0.7,0-1.3,0-2,0h-19.8v-16.5h-0.7v16.5h-4.5v-17.8h-0.7v17.8h-4.5v-18.3h-0.7v18.3h-13.2v-15.3h-0.7v15.3h-4.5V319h-0.7v12.7
			h-4.5v-8.9h-0.7v8.9h-8.9v0.7h8.9v3.2H662v0.7h9.1v8.9h0.7v-8.9h4.5V349h0.7v-12.7h4.5v15.6h0.7v-15.6h13.2V355h0.7v-18.6h4.5
			v18.1h0.7v-18.1h4.5v16.5h0.7v-16.5h19.8c0.7,0,1.4,0,2,0c4-0.1,7.2-0.2,10,3.2c0.3,0.3,0.6,0.8,0.9,1.4c0.8,1.4,1.8,2.9,3,3.2
			c0.2,0.1,0.4,0.1,0.6,0.1c0.5,0,1-0.2,1.4-0.7c1.1-1.3,1.3-4.1,0.8-5.4L744.4,338.4z M671.9,335.6v-3.2h4.5v3.2H671.9z
			 M677.1,335.6v-3.2h4.5v3.2H677.1z M682.3,335.6v-3.2h13.2v3.2H682.3z M696.3,335.6v-3.2h4.5v3.2H696.3z M701.5,335.6v-3.2h4.5
			v3.2H701.5z"/>
		<g>
			<path fill="#FFFFFF" d="M742.4,329.1c-0.6,0-1.1-0.5-1.1-1.1c0-0.6,0.5-1.1,1.1-1.1c0.6,0,1.1,0.5,1.1,1.1
				C743.5,328.6,743,329.1,742.4,329.1z"/>
		</g>
		<g>
			<path fill="#FFFFFF" d="M742.4,341.4c-0.6,0-1.1-0.5-1.1-1.1c0-0.6,0.5-1.1,1.1-1.1c0.6,0,1.1,0.5,1.1,1.1
				C743.5,340.9,743,341.4,742.4,341.4z"/>
		</g>
		<circle fill="none" stroke="#FFFFFF" stroke-width="2.0431" stroke-miterlimit="10" cx="688.5" cy="324.1" r="4.4"/>
		<circle fill="none" stroke="#FFFFFF" stroke-width="2.0431" stroke-miterlimit="10" cx="688.5" cy="343.6" r="4.4"/>
	</g>
	<g>
		<path fill="#FFFFFF" d="M690.9,412.1h-2.2v-15.9h-2.2v15.9h-2.2v-15.9h-2.1v15.9H680v-14.6c0-0.4,0.1-0.9,0.4-1.3
			c0.2-0.4,0.6-0.8,1-1c0.4-0.3,0.8-0.4,1.3-0.4h5.6c0.4,0,0.9,0.1,1.3,0.4c0.4,0.3,0.8,0.6,1,1c0.3,0.4,0.4,0.8,0.4,1.3V412.1z"/>
		<path fill="#FFFFFF" d="M692.5,409.5v-12.2c0-0.4,0.1-0.9,0.4-1.3c0.3-0.4,0.6-0.7,1-1c0.4-0.3,0.8-0.4,1.3-0.4h3.8v5.5h-2.2v-3.9
			h-2.1v6.4h2.1v1.5h-2.1v6.4h2.1v-3.9h2.2v5.5h-3.8c-0.4,0-0.9-0.1-1.3-0.4c-0.4-0.2-0.8-0.6-1-1
			C692.6,410.4,692.5,410,692.5,409.5z"/>
		<path fill="#FFFFFF" d="M700.5,412.1v-17.4h3.8c0.4,0,0.8,0.1,1.3,0.3c0.4,0.2,0.8,0.5,1,0.9c0.3,0.4,0.4,0.9,0.4,1.4v12.2
			c0,0.7-0.3,1.3-0.8,1.8c-0.6,0.5-1.2,0.8-1.8,0.8H700.5z M702.7,396.2v14.4h2.1v-14.4H702.7z"/>
		<path fill="#FFFFFF" d="M708.7,394.7h2.2v17.4h-2.2V394.7z"/>
		<path fill="#FFFFFF" d="M714.6,412.1h-2.2v-14.8c0-0.5,0.1-0.9,0.4-1.3c0.3-0.4,0.6-0.7,1-1c0.4-0.2,0.8-0.4,1.3-0.4h1.2
			c0.5,0,0.9,0.1,1.3,0.4c0.4,0.3,0.7,0.6,1,1c0.2,0.4,0.4,0.9,0.4,1.3v14.7h-2.2v-5.4h-2.2V412.1z M714.5,396.2v9h2.2v-9H714.5z"/>
	</g>
	<g>
		<path fill="#FFFFFF" d="M767.6,379.7c-0.5,1.5-1.2,3-2.2,4.3c-0.9,1.3-2,2.4-3.2,3.4c-1.2,1-2.6,1.7-4,2.2c-1.5,0.5-3,0.8-4.8,0.8
			c-2.1,0-4-0.4-5.7-1.1c-1.8-0.8-3.3-1.8-4.7-3.2c-1.4-1.4-2.4-2.9-3.2-4.7c-0.8-1.8-1.1-3.7-1.1-5.7c0-2,0.4-3.9,1.1-5.7
			c0.8-1.8,1.8-3.4,3.2-4.7c1.4-1.4,2.9-2.4,4.7-3.2c1.8-0.8,3.7-1.2,5.7-1.2h13.8v6h-13.8c-1.2,0-2.4,0.2-3.4,0.7
			c-1.1,0.5-2,1.1-2.8,1.9c-0.8,0.8-1.4,1.7-1.9,2.8c-0.5,1.1-0.7,2.2-0.7,3.4c0,1.2,0.2,2.4,0.7,3.4c0.5,1.1,1.1,2,1.9,2.8
			c0.8,0.8,1.7,1.4,2.8,1.9c1.1,0.5,2.2,0.7,3.4,0.7c1.7,0,3.2-0.4,4.5-1.3c1.4-0.9,2.4-2,3.3-3.4H767.6z"/>
		<path fill="#FFFFFF" d="M694,390.4v-14.8c0-1.2-0.2-2.4-0.7-3.4c-0.5-1.1-1.1-2-1.9-2.8c-0.8-0.8-1.7-1.4-2.8-1.9
			c-1.1-0.5-2.2-0.7-3.4-0.7h-8.6v23.6h-6v-29.5h14.6c2,0,3.9,0.4,5.7,1.1c1.8,0.8,3.4,1.8,4.7,3.2c1.4,1.4,2.4,2.9,3.2,4.7
			c0.8,1.8,1.1,3.7,1.1,5.7v14.8H694z"/>
		<rect x="659.8" y="360.9" fill="#FFFFFF" width="5.7" height="29.5"/>
		<path fill="#FFFFFF" d="M651,368.2c-0.7-0.4-1.5-0.7-2.3-1c-0.8-0.2-1.6-0.4-2.4-0.4c-1.2,0-2.3,0.2-3.3,0.7
			c-1.1,0.5-2,1.1-2.8,1.9c-0.8,0.8-1.4,1.8-1.9,2.8c-0.5,1.1-0.7,2.2-0.7,3.4v14.8h-5.9v-14.8c0-2,0.4-3.9,1.1-5.7
			c0.8-1.8,1.8-3.4,3.1-4.7c1.3-1.3,2.9-2.4,4.6-3.2c1.8-0.8,3.7-1.2,5.7-1.2c1.7,0,3.2,0.3,4.7,0.8c1.5,0.5,2.9,1.3,4.2,2.1
			L651,368.2z"/>
		<path fill="#FFFFFF" d="M625.9,369.9c-0.8-1.8-1.8-3.4-3.2-4.7c-1.4-1.4-2.9-2.4-4.7-3.2c-1.8-0.8-3.7-1.1-5.7-1.1
			c-2.1,0-4,0.4-5.7,1.1c-1.8,0.8-3.3,1.8-4.7,3.2c-1.4,1.4-2.4,2.9-3.2,4.7c-0.8,1.8-1.2,3.7-1.2,5.7c0,2.1,0.4,4,1.2,5.7
			c0.8,1.8,1.8,3.3,3.2,4.7c1.4,1.4,2.9,2.4,4.7,3.2c1.8,0.8,3.7,1.1,5.7,1.1c2,0,3.9-0.4,5.7-1.1c1.8-0.8,3.4-1.8,4.7-3.2
			c1.4-1.4,2.4-2.9,3.2-4.7c0.8-1.8,1.1-3.7,1.1-5.7C627,373.6,626.6,371.7,625.9,369.9z M620.3,379.1c-0.5,1.1-1.1,2-1.9,2.8
			c-0.8,0.8-1.7,1.4-2.8,1.9c-1.1,0.5-2.2,0.7-3.4,0.7c-1.2,0-2.4-0.2-3.4-0.7c-1.1-0.5-2-1.1-2.8-1.9c-0.8-0.8-1.4-1.7-1.9-2.8
			c-0.5-1.1-0.7-2.2-0.7-3.4c0-1.2,0.2-2.4,0.7-3.4c0.5-1.1,1.1-2,1.9-2.8c0.8-0.8,1.7-1.4,2.8-1.9c1.1-0.5,2.2-0.7,3.4-0.7
			c1.2,0,2.4,0.2,3.4,0.7c1.1,0.5,2,1.1,2.8,1.9c0.8,0.8,1.4,1.7,1.9,2.8c0.5,1.1,0.7,2.2,0.7,3.4C621,376.9,620.8,378,620.3,379.1z
			"/>
		<path fill="#FFFFFF" d="M733,369.9c-0.8-1.8-1.8-3.4-3.2-4.7c-1.4-1.4-2.9-2.4-4.7-3.2c-1.8-0.8-3.7-1.1-5.7-1.1
			c-2.1,0-4,0.4-5.7,1.1c-1.8,0.8-3.3,1.8-4.7,3.2c-1.4,1.4-2.4,2.9-3.2,4.7c-0.8,1.8-1.2,3.7-1.2,5.7c0,2.1,0.4,4,1.2,5.7
			c0.8,1.8,1.8,3.3,3.2,4.7c1.4,1.4,2.9,2.4,4.7,3.2c1.8,0.8,3.7,1.1,5.7,1.1c2,0,3.9-0.4,5.7-1.1c1.8-0.8,3.4-1.8,4.7-3.2
			c1.4-1.4,2.4-2.9,3.2-4.7c0.8-1.8,1.1-3.7,1.1-5.7C734.1,373.6,733.7,371.7,733,369.9z M727.5,379.1c-0.5,1.1-1.1,2-1.9,2.8
			c-0.8,0.8-1.7,1.4-2.8,1.9c-1.1,0.5-2.2,0.7-3.4,0.7c-1.2,0-2.4-0.2-3.4-0.7c-1.1-0.5-2-1.1-2.8-1.9c-0.8-0.8-1.4-1.7-1.9-2.8
			c-0.5-1.1-0.7-2.2-0.7-3.4c0-1.2,0.2-2.4,0.7-3.4c0.5-1.1,1.1-2,1.9-2.8c0.8-0.8,1.7-1.4,2.8-1.9c1.1-0.5,2.2-0.7,3.4-0.7
			c1.2,0,2.4,0.2,3.4,0.7c1.1,0.5,2,1.1,2.8,1.9c0.8,0.8,1.4,1.7,1.9,2.8c0.5,1.1,0.7,2.2,0.7,3.4
			C728.1,376.9,727.9,378,727.5,379.1z"/>
		<path fill="#FFFFFF" d="M799.8,369.9c-0.8-1.8-1.8-3.4-3.2-4.7c-1.4-1.4-2.9-2.4-4.7-3.2c-1.8-0.8-3.7-1.1-5.7-1.1
			c-2.1,0-4,0.4-5.7,1.1c-1.8,0.8-3.3,1.8-4.7,3.2c-1.4,1.4-2.4,2.9-3.2,4.7c-0.8,1.8-1.2,3.7-1.2,5.7c0,2.1,0.4,4,1.2,5.7
			c0.8,1.8,1.8,3.3,3.2,4.7c1.4,1.4,2.9,2.4,4.7,3.2c1.8,0.8,3.7,1.1,5.7,1.1c2,0,3.9-0.4,5.7-1.1c1.8-0.8,3.4-1.8,4.7-3.2
			c1.4-1.4,2.4-2.9,3.2-4.7c0.8-1.8,1.2-3.7,1.2-5.7C800.9,373.6,800.5,371.7,799.8,369.9z M794.3,379.1c-0.5,1.1-1.1,2-1.9,2.8
			c-0.8,0.8-1.7,1.4-2.8,1.9c-1.1,0.5-2.2,0.7-3.4,0.7c-1.2,0-2.4-0.2-3.4-0.7c-1.1-0.5-2-1.1-2.8-1.9c-0.8-0.8-1.4-1.7-1.9-2.8
			c-0.5-1.1-0.7-2.2-0.7-3.4c0-1.2,0.2-2.4,0.7-3.4c0.5-1.1,1.1-2,1.9-2.8c0.8-0.8,1.7-1.4,2.8-1.9c1.1-0.5,2.2-0.7,3.4-0.7
			c1.2,0,2.4,0.2,3.4,0.7c1.1,0.5,2,1.1,2.8,1.9c0.8,0.8,1.4,1.7,1.9,2.8c0.5,1.1,0.7,2.2,0.7,3.4
			C794.9,376.9,794.7,378,794.3,379.1z"/>
	</g>
</g>
</svg>
